^C:\UNIVERSITY\4 COURSE\МОДЕЛИРОВАНИЕ СИСТЕМ\TRIANGGALERKIN\PCH.CPP
C:\UNIVERSITY\4 COURSE\Моделирование систем\TRIANGGALERKIN\X64\DEBUG\TRIANGGALERKIN.PCH
C:\UNIVERSITY\4 COURSE\Моделирование систем\TRIANGGALERKIN\X64\DEBUG\VC142.PDB
C:\UNIVERSITY\4 COURSE\Моделирование систем\TRIANGGALERKIN\X64\DEBUG\VC142.IDB
C:\UNIVERSITY\4 COURSE\Моделирование систем\TRIANGGALERKIN\X64\DEBUG\PCH.OBJ
^C:\UNIVERSITY\4 COURSE\МОДЕЛИРОВАНИЕ СИСТЕМ\TRIANGGALERKIN\TRIANGGALERKIN.CPP|C:\UNIVERSITY\4 COURSE\МОДЕЛИРОВАНИЕ СИСТЕМ\TRIANGGALERKIN\TRIANGGALERKINDLG.CPP
C:\UNIVERSITY\4 COURSE\Моделирование систем\TRIANGGALERKIN\X64\DEBUG\VC142.PDB
C:\UNIVERSITY\4 COURSE\Моделирование систем\TRIANGGALERKIN\X64\DEBUG\VC142.IDB
C:\UNIVERSITY\4 COURSE\Моделирование систем\TRIANGGALERKIN\X64\DEBUG\TRIANGGALERKINDLG.OBJ
C:\UNIVERSITY\4 COURSE\Моделирование систем\TRIANGGALERKIN\X64\DEBUG\TRIANGGALERKIN.OBJ
^C:\UNIVERSITY\4 COURSE\МОДЕЛИРОВАНИЕ СИСТЕМ\TRIANGGALERKIN\TRIANGGALERKIN.CPP
C:\UNIVERSITY\4 COURSE\МОДЕЛИРОВАНИЕ СИСТЕМ\TRIANGGALERKIN\X64\DEBUG\VC142.PDB
^C:\UNIVERSITY\4 COURSE\МОДЕЛИРОВАНИЕ СИСТЕМ\TRIANGGALERKIN\TRIANGGALERKINDLG.CPP
C:\UNIVERSITY\4 COURSE\Моделирование систем\TRIANGGALERKIN\X64\DEBUG\VC142.PDB
C:\UNIVERSITY\4 COURSE\Моделирование систем\TRIANGGALERKIN\X64\DEBUG\VC142.IDB
C:\UNIVERSITY\4 COURSE\Моделирование систем\TRIANGGALERKIN\X64\DEBUG\TRIANGGALERKINDLG.OBJ
^C:\UNIVERSITY\4 COURSE\МОДЕЛИРОВАНИЕ СИСТЕМ\TRIANGGALERKIN — КОПИЯ\PCH.CPP
C:\UNIVERSITY\4 COURSE\Моделирование систем\TRIANGGALERKIN — копия\X64\DEBUG\TRIANGGALERKIN.PCH
C:\UNIVERSITY\4 COURSE\Моделирование систем\TRIANGGALERKIN — копия\X64\DEBUG\VC142.PDB
C:\UNIVERSITY\4 COURSE\Моделирование систем\TRIANGGALERKIN — копия\X64\DEBUG\VC142.IDB
C:\UNIVERSITY\4 COURSE\Моделирование систем\TRIANGGALERKIN — копия\X64\DEBUG\PCH.OBJ
^C:\UNIVERSITY\4 COURSE\МОДЕЛИРОВАНИЕ СИСТЕМ\TRIANGGALERKIN — КОПИЯ\TRIANGGALERKIN.CPP|C:\UNIVERSITY\4 COURSE\МОДЕЛИРОВАНИЕ СИСТЕМ\TRIANGGALERKIN — КОПИЯ\TRIANGGALERKINDLG.CPP
C:\UNIVERSITY\4 COURSE\Моделирование систем\TRIANGGALERKIN — копия\X64\DEBUG\VC142.PDB
C:\UNIVERSITY\4 COURSE\Моделирование систем\TRIANGGALERKIN — копия\X64\DEBUG\VC142.IDB
C:\UNIVERSITY\4 COURSE\Моделирование систем\TRIANGGALERKIN — копия\X64\DEBUG\TRIANGGALERKINDLG.OBJ
C:\UNIVERSITY\4 COURSE\Моделирование систем\TRIANGGALERKIN — копия\X64\DEBUG\TRIANGGALERKIN.OBJ
^C:\UNIVERSITY\4 COURSE\МОДЕЛИРОВАНИЕ СИСТЕМ\TRIANGGALERKIN — КОПИЯ\TRIANGGALERKIN.CPP
C:\UNIVERSITY\4 COURSE\МОДЕЛИРОВАНИЕ СИСТЕМ\TRIANGGALERKIN — КОПИЯ\X64\DEBUG\VC142.PDB
^C:\UNIVERSITY\4 COURSE\МОДЕЛИРОВАНИЕ СИСТЕМ\TRIANGGALERKIN — КОПИЯ\TRIANGGALERKINDLG.CPP
C:\UNIVERSITY\4 COURSE\МОДЕЛИРОВАНИЕ СИСТЕМ\TRIANGGALERKIN — КОПИЯ\X64\DEBUG\VC142.PDB
