^C:\UNIVERSITY\4 COURSE\МОДЕЛИРОВАНИЕ СИСТЕМ\TRIANGGALERKIN\TRIANGGALERKIN.RC
C:\UNIVERSITY\4 COURSE\Моделирование систем\TRIANGGALERKIN\X64\DEBUG\TRIANGGALERKIN.RES
^C:\UNIVERSITY\4 COURSE\МОДЕЛИРОВАНИЕ СИСТЕМ\TRIANGGALERKIN — КОПИЯ\TRIANGGALERKIN.RC
C:\UNIVERSITY\4 COURSE\Моделирование систем\TRIANGGALERKIN — копия\X64\DEBUG\TRIANGGALERKIN.RES
